Chapter 17 Exercise 1: Word frequency analysis | Computational Text Analysis
…
Instead of by year, we might have wanted to sort our text into “genre.” Here, we have two genres: “Literature” and “Children.” Had we done so, we would then have only two “documents,” which contained all of the words included in the event descriptions for each genre.

Alternatively, we might be interested in the contributions of individual authors over time. Were this the case, we could have sorted our text into documents by author. In this case, each “document” would represent all the words included in event descriptions for events by the given author (many of whom do have multiple appearances over time or in the same festival for a given year).

We can yet tidy this further, though. First we’ll remove all stop words and then we’ll remove all apostrophes:

tidy_des <- tidy_des %>%
    filter(!word %in% stop_words$word)

We see that the number of rows in our dataset reduces by about half to ~223k rows. This is natural since a large proportion of any string will contain many so-called “stop words”. We can see what these stop words are by typing:

stop_words

## # A tibble: 1,149 × 2
##    word        lexicon
##    <chr>       <chr>  
##  1 a           SMART  
##  2 a's         SMART  
##  3 able        SMART  
##  4 about       SMART  
##  5 above       SMART  
##  6 according   SMART  
##  7 accordingly SMART  
##  8 across      SMART  
##  9 actually    SMART  
## 10 after       SMART  
## # … with 1,139 more rows

This is a lexicon (list of words) included in the tidytext package produced by Julia Silge and David Robinson (see here). We see it contains over 1000 such words. We remove them here because they are not very informative if we are interested in the substantive content of text (rather than, say, its grammatical content).

Now let’s have a look at the most common words in these data:

tidy_des %>%
  count(word, sort = TRUE)

## # A tibble: 24,995 × 2
##    word       n
##    <chr>  <int>
##  1 rsquo   5638
##  2 book    2088
##  3 event   1356
##  4 author  1332
##  5 world   1240
##  6 story   1159
##  7 join    1095
##  8 em      1064
##  9 life     879
## 10 strong   864
## # … with 24,985 more rows

We can see that one of the most common words is “rsquo,” which is an HTML encoding for an apostrophe. Clearly we need to clean the data a bit more. This is a common issue in large-n text analysis and is a key step if you want to conduct reliably robust forms of text analysis. We’ll have another go using the the filter command, specifying that we only keep the words that are not included in the string of words rsquo, em, ndash, nbsp, lsquo.

remove_reg <- c("&amp;","&lt;","&gt;","<p>", "</p>","&rsquo", "&lsquo;",  "&#39;", "<strong>", "</strong>", "rsquo", "em", "ndash", "nbsp", "lsquo", "strong")
reg_match <- paste0(remove_reg, collapse = "|")
                  
tidy_des <- tidy_des %>%
  filter(!word %in% remove_reg)

tidy_des %>%
  count(word, sort = TRUE)

## # A tibble: 24,989 × 2
##    word        n
##    <chr>   <int>
##  1 book     2088
##  2 event    1356
##  3 author   1332
##  4 world    1240
##  5 story    1159
##  6 join     1095
##  7 life      879
##  8 stories   860
##  9 chaired   815
## 10 books     767
## # … with 24,979 more rows
…
