Chapter 22 Exercise 6: Unsupervised learning (word embedding) | Computational Text Analysis
…
normalized_prob %>% 
    filter(word1 == "brexit") %>%
    arrange(-p_together)

## # A tibble: 1,016 × 7
##    word1  word2                      n           p      p1         p2 p_together
##    <chr>  <chr>                  <dbl>       <dbl>   <dbl>      <dbl>      <dbl>
##  1 brexit scotlandsplaceineurope    37 0.000000479 0.00278 0.00000186       92.6
##  2 brexit preparedness              22 0.000000285 0.00278 0.00000149       68.8
##  3 brexit dividend                 176 0.00000228  0.00278 0.0000127        64.8
##  4 brexit brexit                 38517 0.000499    0.00278 0.00278          64.6
##  5 brexit softer                    50 0.000000648 0.00278 0.00000410       56.9
##  6 brexit botched                  129 0.00000167  0.00278 0.0000153        39.4
##  7 brexit impasse                   53 0.000000687 0.00278 0.00000820       30.1
##  8 brexit smooth                    30 0.000000389 0.00278 0.00000596       23.5
##  9 brexit frustrate                 28 0.000000363 0.00278 0.00000559       23.4
## 10 brexit deadlock                 120 0.00000155  0.00278 0.0000246        22.8
## # … with 1,006 more rows
…
