Chapter 18 Exercise 2: Dictionary-based methods | Computational Text Analysis
…
18.5 Get sentiment dictionaries

Several sentiment dictionaries come bundled with the tidytext package. These are:

AFINN from Finn Årup Nielsen,

bing from Bing Liu and collaborators, and

nrc from Saif Mohammad and Peter Turney

We can have a look at some of these to see how the relevant dictionaries are stored.

get_sentiments("afinn")

## # A tibble: 2,477 × 2
##    word       value
##    <chr>      <dbl>
##  1 abandon       -2
##  2 abandoned     -2
##  3 abandons      -2
##  4 abducted      -2
##  5 abduction     -2
##  6 abductions    -2
##  7 abhor         -3
##  8 abhorred      -3
##  9 abhorrent     -3
## 10 abhors        -3
## # … with 2,467 more rows

get_sentiments("bing")

## # A tibble: 6,786 × 2
##    word        sentiment
##    <chr>       <chr>    
##  1 2-faces     negative 
##  2 abnormal    negative 
##  3 abolish     negative 
##  4 abominable  negative 
##  5 abominably  negative 
##  6 abominate   negative 
##  7 abomination negative 
##  8 abort       negative 
##  9 aborted     negative 
## 10 aborts      negative 
## # … with 6,776 more rows

get_sentiments("nrc")

## # A tibble: 13,875 × 2
##    word        sentiment
##    <chr>       <chr>    
##  1 abacus      trust    
##  2 abandon     fear     
##  3 abandon     negative 
##  4 abandon     sadness  
##  5 abandoned   anger    
##  6 abandoned   fear     
##  7 abandoned   negative 
##  8 abandoned   sadness  
##  9 abandonment anger    
## 10 abandonment fear     
## # … with 13,865 more rows

What do we see here. First, the AFINN lexicon gives words a score from -5 to +5, where more negative scores indicate more negative sentiment and more positive scores indicate more positive sentiment. The nrc lexicon opts for a binary classification: positive, negative, anger, anticipation, disgust, fear, joy, sadness, surprise, and trust, with each word given a score of 1/0 for each of these sentiments. In other words, for the nrc lexicon, words appear multiple times if they enclose more than one such emotion (see, e.g., “abandon” above). The bing lexicon is most minimal, classifying words simply into binary “positive” or “negative” categories.

Let’s see how we might filter the texts by selecting a dictionary, or subset of a dictionary, and using inner_join() to then filter out tweet data. We might, for example, be interested in fear words. Maybe, we might hypothesize, there is a uptick of fear toward the beginning of the coronavirus outbreak. First, let’s have a look at the words in our tweet data that the nrc lexicon codes as fear-related words.

nrc_fear <- get_sentiments("nrc") %>% 
  filter(sentiment == "fear")

tidy_tweets %>%
  inner_join(nrc_fear) %>%
  count(word, sort = TRUE)

## Joining, by = "word"

## # A tibble: 1,173 × 2
##    word           n
##    <chr>      <int>
##  1 mum         4509
##  2 death       4073
##  3 police      3275
##  4 hospital    2240
##  5 government  2179
##  6 pandemic    1877
##  7 fight       1309
##  8 die         1199
##  9 attack      1099
## 10 murder      1064
## # … with 1,163 more rows
…
