Chapter 5 Week 3 Demo | Computational Text Analysis
…
## Warning: Returning more (or less) than 1 row per `summarise()` group was deprecated
## in dplyr 1.1.0.
## ℹ Please use `reframe()` instead.
## ℹ When switching from `summarise()` to `reframe()`, remember that
##   `reframe()` always returns an ungrouped data frame and adjust accordingly.

## `summarise()` has grouped output by 'week', 'student'. You can override
## using the `.groups` argument.

## # A tibble: 300 × 5
## # Groups:   week, student [300]
##     week student sum_hap index_total prop_hap
##    <int>   <int>   <int>       <int>    <dbl>
##  1     1       1    1023        3975    0.257
##  2     1       2     909        3538    0.257
##  3     1       3     598        3064    0.195
##  4     1       4     834        3542    0.235
##  5     1       5     932        4514    0.206
##  6     1       6    1097        4922    0.223
##  7     1       7     720        4075    0.177
##  8     1       8     838        3596    0.233
##  9     1       9     812        3934    0.206
## 10     1      10    1291        6045    0.214
## # … with 290 more rows
…
