Chapter 11 Week 6 Demo | Computational Text Analysis
…
We can then use the tidy() function from tidytext to gather the relevant parameters we’ve estimated. To get the \(\beta\) per-topic-per-word probabilities (i.e., the probability that the given term belongs to a given topic) we can do the following.

lda_beta <- tidy(lda_output, matrix = "beta")

lda_beta %>%
  arrange(-beta)

## # A tibble: 104,730 × 3
##    topic term      beta
##    <int> <chr>    <dbl>
##  1     7 percent 0.0307
##  2    10 bush    0.0158
##  3     1 new     0.0152
##  4     6 new     0.0125
##  5     9 state   0.0120
##  6    10 i       0.0119
##  7     2 year    0.0118
##  8     3 bank    0.0117
##  9     5 noriega 0.0108
## 10     8 roberts 0.0107
## # … with 104,720 more rows

And to get the \(\gamma\) per-document-per-topic probabilities (i.e., the probability that a given document (here: article) belongs to a particular topic) we do the following.

lda_gamma <- tidy(lda_output, matrix = "gamma")

lda_gamma %>%
  arrange(-gamma)

## # A tibble: 1,000 × 3
##    document topic gamma
##       <int> <int> <dbl>
##  1       76     7  1.00
##  2       81     1  1.00
##  3        6     5  1.00
##  4       43     8  1.00
##  5       31     7  1.00
##  6       95     1  1.00
##  7       77    10  1.00
##  8       29     2  1.00
##  9       80     4  1.00
## 10       57     3  1.00
## # … with 990 more rows
…
